Food Access in different Regions
…
Rows: 3142 Columns: 25
── Column specification ────────────────────────────────────────────────────────
Delimiter: ","
chr  (2): County, State
dbl (23): Population, Housing Data.Residing in Group Quarters, Housing Data....

ℹ Use `spec()` to retrieve the full column specification for this data.
ℹ Specify the column types or set `show_col_types = FALSE` to quiet this message.

# A tibble: 51 × 2
   State                  mean
   <chr>                 <dbl>
 1 Alabama              0.0453
 2 Alaska               0.160 
 3 Arizona              0.0366
 4 Arkansas             0.0410
 5 California           0.0155
 6 Colorado             0.0187
 7 Connecticut          0.0182
 8 Delaware             0.0202
 9 District of Columbia 0.0104
10 Florida              0.0278
# … with 41 more rows
…
# A tibble: 51 × 2
   State                 total
   <chr>                 <dbl>
 1 Alabama               1729.
 2 Alaska                 908.
 3 Arizona               9165.
 4 Arkansas              1052.
 5 California           14135.
 6 Colorado              1811.
 7 Connecticut          14769 
 8 Delaware              8138.
 9 District of Columbia 40021 
10 Florida               6294.
# … with 41 more rows
…
